{
  "id": "95a53e87-a4d3-482b-864c-a139c99bb1e5",
  "name": "TP3-WEB",
  "values": [
    {
      "key": "url_base",
      "value": "http://localhost:3000/",
      "enabled": true,
      "type": "text"
    }
  ],
  "_postman_variable_scope": "environment",
  "_postman_exported_at": "2018-04-17T15:10:45.651Z",
  "_postman_exported_using": "Postman/6.0.10"
}