
 {  
      "id": 1,
    "nom":"test",
    "email":"test@test.com",
    "passw":"test"
 }
 {  
      "id": 2,
    "nom":"test2",
    "email":"test2@test.com",
    "passw":"test2"
 }
 {  
      "id": 3,
    "nom":"test3",
    "email":"test3@test.com",
    "passw":"test3"
 }

